"productId","productName","externalId","isActive","isDeleted","isCompetitor","createdAt","updatedAt"
1001,"CHANTIX","a00A0000000quNsIAI",1,0,0,"2015-11-12 18:07:56","2015-11-17 17:58:58"
1003,"LYRICA","a00A0000000quNwIAI",1,0,0,"2015-12-10 20:04:15","2016-01-19 22:27:36"
1007,"ELIQUIS","a00A00000095y22IAA",1,0,0,"2016-12-22 22:45:04","2016-12-22 22:45:04"
1005,"AKT_ALL_PRODUCTS","AKT_ALL_PRODUCTS",1,0,0,"2016-05-27 18:21:03","2016-05-27 18:21:03"
