"repId","repTypeId","workWeekId","externalId","repName","latitude","longitude","timeZoneId","isActivated","isDeleted","seConfigId","createdAt","updatedAt"
1013,1041,1001,"005A0000000NJL9IAO","Marilyn Pettit",NA,NA,"America/New_York",1,0,571,"2015-11-12 18:40:46","2017-07-02 18:29:11"
1094,1041,1001,"00580000002EaEMAA0","Martha Devlin",NA,NA,"America/New_York",1,0,590,"2015-11-14 14:26:00","2017-07-02 18:29:11"
2956,1041,1001,"005A0000000Oo7DIAS","Ryan Farmer",NA,NA,"America/New_York",1,0,592,"2016-11-14 19:07:41","2017-07-02 18:29:11"
3477,1041,1001,"005A0000007pLjyIAE","Alexandria Remillard",NA,NA,"America/New_York",1,0,583,"2017-02-08 19:13:43","2017-07-02 18:29:11"
3478,1041,1001,"005A0000007pLk2IAE","Allison Roblyer",NA,NA,"America/New_York",1,0,583,"2017-02-08 19:13:43","2017-07-02 18:29:11"
1307,1041,1001,"00580000002EYQIAA4","Rogers Campbell",NA,NA,"America/Chicago",1,0,583,"2015-11-14 14:26:15","2017-07-02 18:29:11"
1070,1041,1001,"00580000002EaafAAC","Wiley Murray",NA,NA,"America/Chicago",1,0,592,"2015-11-14 14:25:59","2017-07-02 18:29:11"
1928,1041,1001,"005A0000006RWdsIAG","Barry Steenbergen",NA,NA,"America/Chicago",1,0,583,"2015-11-14 14:26:58","2017-07-02 18:29:11"
2673,1041,1001,"005A0000001BMhkIAG","Ashley Lewis",NA,NA,"America/Chicago",1,0,592,"2016-06-08 16:27:25","2017-07-02 04:59:06"
1662,1041,1001,"005A0000000NCLpIAO","Jill Stevens",NA,NA,"America/New_York",1,0,592,"2015-11-14 14:26:41","2017-07-02 18:29:11"
1532,1041,1001,"00580000002EZSCAA4","Jason Rosendaul",NA,NA,"America/Los_Angeles",1,0,NA,"2015-11-14 14:26:31","2017-08-04 22:24:59"
1730,1041,1001,"005A0000000Oo61IAC","Mustapha Hoff",NA,NA,"America/Los_Angeles",1,0,583,"2015-11-14 14:26:45","2017-07-02 18:29:11"
3468,1041,1001,"005A0000007pLk0IAE","Tammy Shumway",NA,NA,"America/Los_Angeles",1,0,592,"2017-02-07 19:16:44","2017-07-02 18:29:11"
1007,1041,1001,"00580000002EZs9AAG","Randall Vant Hoff",NA,NA,"America/Chicago",1,0,583,"2015-11-12 18:40:45","2017-07-02 18:29:11"
1096,1041,1001,"00580000002EaETAA0","Adam Sessions",NA,NA,"America/Chicago",1,0,583,"2015-11-14 14:26:01","2017-07-02 18:29:11"
1386,1041,1001,"00580000002EZ2jAAG","James Blachowicz",NA,NA,"America/Chicago",1,0,NA,"2015-11-14 14:26:20","2017-08-04 22:25:00"
1621,1041,1001,"005A0000000MghkIAC","Gary Mc Lain",NA,NA,"America/Chicago",1,0,571,"2015-11-14 14:26:38","2017-07-02 18:29:11"
1814,1041,1001,"005A0000001AqjIIAS","Deborah Ne Collins",NA,NA,"America/Chicago",1,0,592,"2015-11-14 14:26:51","2017-07-02 18:29:11"
3438,1041,1001,"005A00000074X20IAE","Katie Adams",NA,NA,"America/Chicago",1,0,592,"2017-01-13 19:22:35","2017-07-02 04:59:06"
1968,1041,1001,"005A0000000NJJ1IAO","Karen Coia",NA,NA,"America/New_York",1,0,592,"2016-01-19 22:28:24","2017-07-02 18:29:11"
1992,1041,1001,"00580000002EaaDAAS","John Galvin",NA,NA,"America/New_York",1,0,591,"2016-01-19 22:28:26","2017-07-02 18:29:11"
2057,1041,1001,"00580000002EaAEAA0","RoseMarie Losi",NA,NA,"America/New_York",1,0,590,"2016-01-27 07:25:35","2017-07-02 18:29:11"
2078,1041,1001,"00580000002EZMJAA4","Marie Staniszewski",NA,NA,"America/New_York",1,0,571,"2016-01-27 20:50:55","2017-07-02 18:29:11"
3040,1041,1001,"00580000002EZUdAAO","Todd Griffin",NA,NA,"America/New_York",1,0,583,"2016-12-29 03:23:26","2017-07-02 18:29:11"
1967,1041,1001,"005A0000000NJIpIAO","Susan Barone",NA,NA,"America/New_York",1,0,592,"2016-01-19 22:28:24","2017-07-02 18:29:11"
2011,1041,1001,"00580000002EZ4MAAW","Nicole Barden",NA,NA,"America/New_York",1,0,590,"2016-01-19 22:28:28","2017-07-02 18:29:11"
1985,1041,1001,"00580000002EabyAAC","Gary Schlegel",NA,NA,"America/New_York",1,0,601,"2016-01-19 22:28:25","2017-07-02 18:29:11"
3184,1041,1001,"005A0000001E48RIAS","Lonny Sullivan",NA,NA,"America/New_York",1,0,583,"2016-12-29 03:23:33","2017-07-02 18:29:11"
3261,1041,1001,"00580000002EZq2AAG","Marlene Smith",NA,NA,"America/New_York",1,0,583,"2016-12-30 23:04:25","2017-07-02 18:29:11"
3483,1041,1001,"005A0000000PHcaIAG","Amy Miller",NA,NA,"America/Los_Angeles",1,0,583,"2017-02-08 19:13:43","2017-07-02 18:29:11"
2668,1041,1001,"00580000002EZoQAAW","Lauren Langley",NA,NA,"America/New_York",1,0,590,"2016-06-08 16:27:25","2017-07-02 18:29:11"
3300,1041,1001,"00580000002EabZAAS","Shelly Smith",NA,NA,"America/New_York",1,0,583,"2016-12-30 23:04:27","2017-07-02 18:29:11"
3491,1041,1001,"005A0000001AqlNIAS","Timothy Dabney",NA,NA,"America/New_York",1,0,571,"2017-02-15 19:27:01","2017-07-02 18:29:11"
2084,1041,1001,"00580000002EZ57AAG","Selina Eviston",NA,NA,"America/New_York",1,0,571,"2016-01-27 20:50:55","2017-07-02 18:29:11"
2617,1041,1001,"005A00000073SltIAE","Courtney Hacker",NA,NA,"America/New_York",1,0,592,"2016-06-08 16:27:21","2017-07-02 04:59:06"
2746,1041,1001,"005A0000000NNZMIA4","Terry Reynolds",NA,NA,"America/New_York",1,0,590,"2016-06-08 16:27:30","2017-07-02 18:29:11"
2064,1041,1001,"005A0000000NP5AIAW","Monique Gehner",NA,NA,"America/Los_Angeles",1,0,571,"2016-01-27 20:50:55","2017-07-02 18:29:11"
2357,1041,1001,"005A0000000O2m8IAC","Laura Hinds",NA,NA,"America/Los_Angeles",1,0,601,"2016-06-02 22:41:18","2017-07-02 18:29:11"
2464,1041,1001,"005A0000000OmmfIAC","Catherine Voels",NA,NA,"America/Los_Angeles",1,0,592,"2016-06-02 22:41:28","2017-07-02 18:29:11"
3027,1041,1001,"005A0000004wXdTIAU","Jennifer Allison Hooker",NA,NA,"America/Los_Angeles",1,0,583,"2016-12-29 03:23:25","2017-07-02 18:29:11"
2635,1041,1001,"00580000002EZpdAAG","Laura Hood",NA,NA,"America/New_York",1,0,590,"2016-06-08 16:27:22","2017-07-02 18:29:11"
2651,1041,1001,"00580000002EakXAAS","Lisa Jones",NA,NA,"America/New_York",1,0,592,"2016-06-08 16:27:23","2017-07-02 18:29:11"
3074,1041,1001,"00580000002EYe3AAG","Cheryl Kezdy",NA,NA,"America/New_York",1,0,583,"2016-12-29 03:23:28","2017-07-02 18:29:11"
2206,1041,1001,"00580000002EYU0AAO","Leeann Naughton",NA,NA,"America/Chicago",1,0,583,"2016-01-27 20:50:58","2017-07-02 18:29:11"
2209,1041,1001,"00580000002EaUAAA0","Nancy Schmidt",NA,NA,"America/Chicago",1,0,583,"2016-01-27 20:50:58","2017-07-02 18:29:11"
3459,1041,1001,"005A0000007oljJIAQ","Jessica Lynds",NA,NA,"America/Chicago",1,0,590,"2017-01-13 19:22:36","2017-07-02 18:29:11"
2735,1041,1001,"005A0000001AqihIAC","Heather Platt",NA,NA,"America/New_York",1,0,592,"2016-06-08 16:27:29","2017-07-02 18:29:11"
3381,1041,1001,"00580000002EYurAAG","Shannon Soehner",NA,NA,"America/New_York",1,0,NA,"2016-12-30 23:04:31","2017-08-04 22:25:13"
3669,1041,1001,"005A00000084oyGIAQ","Deborah Samocki",NA,NA,"America/New_York",1,0,583,"2017-05-26 17:28:04","2017-08-29 22:59:23"
2652,1041,1001,"005A00000074gJcIAI","Heather Joshua",NA,NA,"America/Chicago",1,0,601,"2016-06-08 16:27:24","2017-07-02 18:29:11"
2786,1041,1001,"00580000002Eb7PAAS","Nancy Sternberg-Oakland",NA,NA,"America/Chicago",1,0,590,"2016-06-08 16:27:33","2017-07-02 18:29:11"
3348,1041,1001,"00580000002EZs1AAG","Carissa Perez-Ebert",NA,NA,"America/Chicago",1,0,583,"2016-12-30 23:04:30","2017-07-02 18:29:11"
2801,1041,1001,"00580000002Ea2AAAS","Kamala Thompson",NA,NA,"America/New_York",1,0,592,"2016-06-08 16:27:34","2017-07-02 18:29:11"
1370,1041,1001,"00580000002EYZvAAO","Carolyn Fuller",NA,NA,"America/New_York",1,0,583,"2015-11-14 14:26:19","2017-07-02 18:29:11"
1881,1041,1001,"005A0000001E48vIAC","Lorna Fedoruk",NA,NA,"America/New_York",1,0,583,"2015-11-14 14:26:55","2017-07-02 18:29:11"
3489,1041,1001,"005A0000007pLjsIAE","Kimberly F Anderson",NA,NA,"America/New_York",1,0,571,"2017-02-15 19:27:00","2017-07-02 18:29:11"
1158,1041,1001,"00580000002EaQaAAK","Gwendolyn Hubbard",NA,NA,"America/New_York",1,0,601,"2015-11-14 14:26:05","2017-07-02 18:29:11"
2897,1041,1001,"005A0000006uY6qIAE","Frederick McCants",NA,NA,"America/New_York",1,0,590,"2016-10-11 18:53:08","2017-07-02 04:59:06"
3250,1041,1001,"00580000002EZsJAAW","Rebecca Rossow",NA,NA,"America/Los_Angeles",1,0,583,"2016-12-30 23:04:25","2017-07-02 18:29:11"
2097,1041,1001,"005A0000006RdGCIA0","Jessica Poon",NA,NA,"America/Los_Angeles",1,0,571,"2016-01-27 20:50:55","2017-07-02 04:59:06"
1318,1041,1001,"00580000002EYrxAAG","Debra Bennett",NA,NA,"America/Chicago",1,0,583,"2015-11-14 14:26:15","2017-07-02 18:29:11"
1438,1041,1001,"00580000002EZbzAAG","Lindsay Stroh",NA,NA,"America/Chicago",1,0,591,"2015-11-14 14:26:23","2017-11-01 22:24:38"
1501,1041,1001,"00580000002EZnLAAW","Mark Fiebach",NA,NA,"America/Chicago",1,0,591,"2015-11-14 14:26:29","2017-07-02 18:29:11"
1787,1041,1001,"005A0000001A9UbIAK","Stacy Glatczak",NA,NA,"America/Chicago",1,0,592,"2015-11-14 14:26:49","2017-10-07 21:41:20"
2623,1041,1001,"00580000002EYktAAG","Paula Head",NA,NA,"America/New_York",1,0,601,"2016-06-08 16:27:21","2017-07-02 18:29:11"
1760,1041,1001,"005A0000001A5JIIA0","Kristine Shallman",NA,NA,"America/New_York",1,0,101,"2015-11-14 14:26:47","2017-07-02 18:29:11"
2619,1041,1001,"00580000002EZhVAAW","John Hamelly",NA,NA,"America/New_York",1,0,592,"2016-06-08 16:27:21","2017-07-02 18:29:11"
2723,1041,1001,"00580000002EZ0XAAW","Nathaniel Oman",NA,NA,"America/New_York",1,0,592,"2016-06-08 16:27:29","2017-07-02 18:29:11"
2770,1041,1001,"00580000002EaLVAA0","Amanda Sharp",NA,NA,"America/New_York",1,0,591,"2016-06-08 16:27:32","2017-07-02 18:29:11"
3135,1041,1001,"00580000002EaDKAA0","Christina Jobe",NA,NA,"America/New_York",1,0,583,"2016-12-29 03:23:31","2017-07-02 18:29:11"
3365,1041,1001,"00580000002EaXiAAK","David Spires",NA,NA,"America/New_York",1,0,583,"2016-12-30 23:04:31","2017-07-02 18:29:11"
1118,1041,1001,"00580000002EaIoAAK","Eric Cervone",NA,NA,"America/New_York",1,0,590,"2015-11-14 14:26:02","2017-07-02 18:29:11"
1669,1041,1001,"005A0000000NH9NIAW","Scott Segall",NA,NA,"America/New_York",1,0,571,"2015-11-14 14:26:41","2017-07-02 18:29:11"
2902,1041,1001,"005A0000007nYDMIA2","Haylie Born",NA,NA,"America/New_York",1,0,592,"2016-11-05 17:28:07","2017-07-02 18:29:11"
2704,1041,1001,"005A0000001AqidIAC","Sandra Miller",NA,NA,"America/New_York",1,0,592,"2016-06-08 16:27:27","2017-08-29 22:59:13"
3630,1041,1001,"005A0000007q3HPIAY","Timothy Pehringer",NA,NA,"America/Chicago",1,0,592,"2017-04-13 17:28:31","2017-07-02 18:29:11"
2840,1041,1001,"00580000002EaNYAA0","Randell Yaden",NA,NA,"America/Los_Angeles",1,0,592,"2016-06-08 16:27:36","2017-10-07 21:41:29"
2082,1041,1001,"00580000002EaFmAAK","Polly Bailer",NA,NA,"America/New_York",1,0,571,"2016-01-27 20:50:55","2017-07-02 18:29:11"
1172,1041,1001,"00580000002EatzAAC","Ashley Brennan",NA,NA,"America/New_York",1,0,601,"2015-11-14 14:26:06","2017-07-02 18:29:11"
1478,1041,1001,"00580000002EZiXAAW","Barbara Fletcher",NA,NA,"America/New_York",1,0,571,"2015-11-14 14:26:27","2017-07-02 18:29:11"
1803,1041,1001,"005A0000001Aqc6IAC","Diane Southwell",NA,NA,"America/New_York",1,0,590,"2015-11-14 14:26:50","2017-07-02 18:29:11"
3530,1041,1001,"005A0000007oliCIAQ","Kara Cutter",NA,NA,"America/New_York",1,0,597,"2017-02-15 23:33:56","2017-07-02 18:29:11"
3696,1041,1001,"005A00000085chaIAA","Kimberly L. McCarter",NA,NA,"America/New_York",1,0,583,"2017-07-17 17:14:30","2017-08-29 22:59:24"
3578,1041,1001,"00580000002EaK0AAK","Angela Banker",NA,NA,"America/New_York",1,0,597,"2017-02-15 23:33:58","2017-07-02 18:29:11"
2079,1041,1001,"005A0000001AqcLIAS","Summer Freese",NA,NA,"America/Chicago",1,0,571,"2016-01-27 20:50:55","2017-07-02 18:29:11"
2365,1041,1001,"00580000002EZkKAAW","Lari Jump",NA,NA,"America/Chicago",1,0,592,"2016-06-02 22:41:18","2017-07-02 18:29:11"
2447,1041,1001,"00580000002EZcsAAG","Barry Smith",NA,NA,"America/Chicago",1,0,590,"2016-06-02 22:41:24","2017-07-02 18:29:11"
3073,1041,1001,"00580000002EZwYAAW","Elizabeth Beck",NA,NA,"America/Chicago",1,0,583,"2016-12-29 03:23:28","2017-07-02 18:29:11"
3298,1041,1001,"005A0000006SJ7CIAW","Jeff Kelley",NA,NA,"America/Chicago",1,0,583,"2016-12-30 23:04:27","2017-07-02 18:29:11"
3564,1041,1001,"005A0000007pLjkIAE","Jacqueline Bowman",NA,NA,"America/Chicago",1,0,597,"2017-02-15 23:33:57","2017-07-02 18:29:11"
1110,1041,1001,"00580000002EagNAAS","Amy Clements",NA,NA,"America/Chicago",1,0,591,"2015-11-14 14:26:02","2017-10-07 21:41:18"
1002,1041,1001,"005A0000004vTiVIAU","Brandon Turner",NA,NA,"America/Chicago",1,0,583,"2015-11-12 18:40:45","2017-07-02 18:29:11"
2774,1041,1001,"00580000002Eb7RAAS","Jennifer Slack",NA,NA,"America/Chicago",1,0,592,"2016-06-08 16:27:32","2017-07-02 18:29:11"
3129,1041,1001,"005A0000001A9VKIA0","Clayton Reed",NA,NA,"America/Chicago",1,0,583,"2016-12-29 03:23:31","2017-10-07 21:41:33"
2124,1041,1001,"005A0000000NH9DIAW","Thomas Mc Clure",NA,NA,"America/New_York",1,0,571,"2016-01-27 20:50:55","2017-07-02 18:29:11"
1151,1041,1001,"00580000002EanoAAC","Courtney Cini",NA,NA,"America/Chicago",1,0,571,"2015-11-14 14:26:04","2017-07-02 18:29:11"
2599,1041,1001,"00580000002EZ5tAAG","Kathleen Freeman",NA,NA,"America/Chicago",1,0,590,"2016-06-08 16:27:20","2017-07-02 18:29:11"
2085,1041,1001,"00580000002EZp9AAG","Walter Beilhart",NA,NA,"America/New_York",1,0,571,"2016-01-27 20:50:55","2017-07-02 18:29:11"
2314,1041,1001,"005A0000000Mzn0IAC","Terry Cummings",NA,NA,"America/Chicago",1,0,592,"2016-06-02 22:41:15","2017-07-02 18:29:11"
2088,1041,1001,"005A0000001AqlSIAS","Annemarie Dammeyer",NA,NA,"America/New_York",1,0,571,"2016-01-27 20:50:55","2017-07-02 18:29:11"
3332,1041,1001,"00580000002EZlBAAW","Eric Schaffert",NA,NA,"America/New_York",1,0,583,"2016-12-30 23:04:29","2017-07-02 18:29:11"
1311,1041,1001,"00580000002EYqWAAW","Janet Kelley",NA,NA,"America/Chicago",1,0,592,"2015-11-14 14:26:15","2017-07-02 18:29:11"
1383,1041,1001,"00580000002EZ2EAAW","Michelle Gallo",NA,NA,"America/Chicago",1,0,583,"2015-11-14 14:26:19","2017-07-02 18:29:11"
1620,1041,1001,"005A0000000MggvIAC","Edie Krause",NA,NA,"America/Chicago",1,0,583,"2015-11-14 14:26:38","2017-07-02 18:29:11"
2705,1041,1001,"005A0000000NNYnIAO","Wendy Modica",NA,NA,"America/Chicago",1,0,601,"2016-06-08 16:27:27","2017-07-02 18:29:11"
2083,1041,1001,"00580000002EagpAAC","Brad Archer",NA,NA,"America/New_York",1,0,583,"2016-01-27 20:50:55","2017-07-02 18:29:11"
2643,1041,1001,"005A0000001Aqe1IAC","Gretchen Iafrate",NA,NA,"America/New_York",1,0,591,"2016-06-08 16:27:23","2017-07-25 21:25:14"
2222,1041,1001,"005A00000074gJoIAI","Kendra Koval",NA,NA,"America/New_York",1,0,571,"2016-03-01 03:24:35","2017-07-02 04:59:06"
2089,1041,1001,"005A0000000NNZ7IAO","Jennifer Klingman",NA,NA,"America/Chicago",1,0,571,"2016-01-27 20:50:55","2017-07-02 18:29:11"
2776,1041,1001,"00580000002EZ0SAAW","Kristin Smith",NA,NA,"America/Chicago",1,0,601,"2016-06-08 16:27:32","2017-07-02 18:29:11"
2807,1041,1001,"00580000002EZAHAA4","Brett Todd",NA,NA,"America/Chicago",1,0,590,"2016-06-08 16:27:34","2017-09-18 23:31:45"
3080,1041,1001,"00580000002EZolAAG","David Borth",NA,NA,"America/Chicago",1,0,583,"2016-12-29 03:23:28","2017-07-02 18:29:11"
3410,1041,1001,"00580000002EZrqAAG","James Jansen",NA,NA,"America/Chicago",1,0,583,"2016-12-30 23:04:33","2017-07-02 18:29:11"
3524,1041,1001,"005A0000000MznCIAS","Lori Vallejo",NA,NA,"America/Chicago",1,0,597,"2017-02-15 23:33:55","2017-10-12 21:59:49"
1506,1041,1001,"00580000002EZnyAAG","Lance Bell",NA,NA,"America/Chicago",1,0,583,"2015-11-14 14:26:29","2017-07-02 18:29:11"
3399,1041,1001,"00580000002EYRTAA4","Edward Hinojosa",NA,NA,"America/Chicago",1,0,583,"2016-12-30 23:04:32","2017-07-02 18:29:11"
2930,1041,1001,"005A0000006uY6pIAE","William Aritua",NA,NA,"America/Chicago",1,0,571,"2016-11-09 23:20:21","2017-07-02 18:29:11"
3117,1041,1001,"005A0000001AqejIAC","Laura Caskey",NA,NA,"America/Chicago",1,0,583,"2016-12-29 03:23:30","2017-07-02 18:29:11"
3645,1041,1001,"00580000002EaxMAAS","Alissa Sneed",NA,NA,"America/Chicago",1,0,592,"2017-04-13 17:28:31","2017-07-02 18:29:11"
1817,1041,1001,"005A0000001AqljIAC","Katherine Dussouy",NA,NA,"America/Chicago",1,0,590,"2015-11-14 14:26:51","2017-07-02 18:29:11"
2870,1041,1001,"005A0000007Np1MIAS","Stephen Martin",NA,NA,"America/Chicago",1,0,571,"2016-06-18 10:10:38","2017-07-02 04:59:06"
2041,1041,1001,"00580000002EZkSAAW","Morris Riddle",NA,NA,"America/New_York",1,0,NA,"2016-01-19 22:28:30","2017-08-04 22:24:59"
3236,1041,1001,"00580000002EZhfAAG","F. Peter Klein",NA,NA,"America/New_York",1,0,583,"2016-12-30 23:04:24","2017-07-02 18:29:11"
2239,1041,1001,"00580000002EZK3AAO","Leslie Black",NA,NA,"America/New_York",1,0,NA,"2016-05-27 18:01:10","2017-08-04 22:24:59"
3394,1041,1001,"00580000002EYigAAG","David Barron",NA,NA,"America/New_York",1,0,583,"2016-12-30 23:04:32","2017-07-02 18:29:11"
2016,1041,1001,"00580000002EYtVAAW","Katherine Fleming",NA,NA,"America/New_York",1,0,NA,"2016-01-19 22:28:28","2017-09-03 01:20:58"
3235,1041,1001,"005A0000000MgftIAC","Eric Hyman",NA,NA,"America/New_York",1,0,583,"2016-12-30 23:04:24","2017-07-02 18:29:11"
2888,1041,1001,"005A0000007Np0sIAC","Jennifer Albrecht",NA,NA,"America/New_York",1,0,592,"2016-09-27 14:33:52","2017-07-02 18:29:11"
2927,1041,1001,"005A0000007nYD3IAM","Vincent Lamia Jr",NA,NA,"America/New_York",1,0,590,"2016-11-08 16:22:13","2017-07-02 18:29:11"
3038,1041,1001,"00580000002EZ9wAAG","Michael Ropa",NA,NA,"America/New_York",1,0,583,"2016-12-29 03:23:26","2017-07-02 18:29:11"
3189,1041,1001,"005A0000001AqumIAC","Debra Placilla",NA,NA,"America/New_York",1,0,583,"2016-12-29 03:23:34","2017-07-02 18:29:11"
2384,1041,1001,"00580000002EZ2rAAG","Toni Massa",NA,NA,"America/Chicago",1,0,592,"2016-06-02 22:41:20","2017-07-02 18:29:11"
2389,1041,1001,"005A0000001AqfBIAS","Mark McCaughey",NA,NA,"America/Chicago",1,0,590,"2016-06-02 22:41:20","2017-07-02 18:29:11"
3279,1041,1001,"00580000002EZ1qAAG","Teresa Blunier",NA,NA,"America/Chicago",1,0,583,"2016-12-30 23:04:26","2017-07-02 18:29:11"
3281,1041,1001,"005A0000001BWYwIAO","Daniel Streitmatter",NA,NA,"America/Chicago",1,0,583,"2016-12-30 23:04:26","2017-07-02 18:29:11"
2298,1041,1001,"00580000002EZh7AAG","Erika Carter",NA,NA,"America/Chicago",1,0,601,"2016-06-02 22:41:14","2017-07-02 18:29:11"
2300,1041,1001,"005A00000074FihIAE","Siddhartha Chand",NA,NA,"America/Los_Angeles",1,0,591,"2016-06-02 22:41:14","2017-07-02 18:29:11"
3373,1041,1001,"00580000002EbElAAK","Megan Wedel",NA,NA,"America/Los_Angeles",1,0,583,"2016-12-30 23:04:31","2017-07-02 18:29:11"
3395,1041,1001,"00580000002EZvkAAG","Casey Gretlein",NA,NA,"America/Los_Angeles",1,0,583,"2016-12-30 23:04:32","2017-07-02 18:29:11"
2290,1041,1001,"00580000002EaqaAAC","Kristine Ruddy",NA,NA,"America/Chicago",1,0,591,"2016-06-02 22:41:13","2017-07-25 16:56:12"
2448,1041,1001,"005A0000000NP6dIAG","Douglas Smith",NA,NA,"America/Chicago",1,0,592,"2016-06-02 22:41:24","2017-07-02 18:29:11"
3077,1041,1001,"005A00000075e7QIAQ","Ashley Furrer",NA,NA,"America/Chicago",1,0,583,"2016-12-29 03:23:28","2017-10-07 21:41:29"
2514,1041,1001,"00580000002Eb3nAAC","Corey Blue",NA,NA,"America/New_York",1,0,592,"2016-06-08 16:27:14","2017-07-02 18:29:11"
2996,1041,1001,"00580000002EZvVAAW","Robert Morris",NA,NA,"America/New_York",1,0,583,"2016-12-29 03:23:24","2017-07-02 18:29:11"
3380,1041,1001,"00580000002EZDvAAO","Skip Closson II",NA,NA,"America/New_York",1,0,583,"2016-12-30 23:04:31","2017-07-02 18:29:11"
2582,1041,1001,"005A0000004wXeCIAU","RayAnn Donoghue",NA,NA,"America/New_York",1,0,597,"2016-06-08 16:27:18","2017-07-01 16:54:11"
2754,1041,1001,"00580000002EZJqAAO","Carey Rochester",NA,NA,"America/New_York",1,0,590,"2016-06-08 16:27:31","2017-07-02 18:29:11"
3150,1041,1001,"00580000002EZheAAG","Mark Hamilton",NA,NA,"America/New_York",1,0,583,"2016-12-29 03:23:32","2017-07-02 18:29:11"
2733,1041,1001,"00580000002EZpcAAG","Vanessa Perry",NA,NA,"America/New_York",1,0,590,"2016-06-08 16:27:29","2017-07-02 18:29:11"
2806,1041,1001,"005A0000001AqeZIAS","Tamara Tipton",NA,NA,"America/New_York",1,0,592,"2016-06-08 16:27:34","2017-07-02 18:29:11"
3141,1041,1001,"00580000002EaeUAAS","Eleanor Carol Leavell Barr",NA,NA,"America/New_York",1,0,583,"2016-12-29 03:23:31","2017-07-02 18:29:11"
2529,1041,1001,"005A0000000NNYgIAO","Amy Buchanan",NA,NA,"America/New_York",1,0,592,"2016-06-08 16:27:15","2017-07-02 18:29:11"
2683,1041,1001,"005A0000001AqgAIAS","Faith Martin",NA,NA,"America/New_York",1,0,591,"2016-06-08 16:27:26","2017-07-02 18:29:11"
2830,1041,1001,"00580000002EaneAAC","Melissa White",NA,NA,"America/New_York",1,0,592,"2016-06-08 16:27:36","2017-07-02 18:29:11"
3137,1041,1001,"00580000002Ea2IAAS","Jason Reels",NA,NA,"America/New_York",1,0,583,"2016-12-29 03:23:31","2017-07-02 18:29:11"
3174,1041,1001,"00580000002EZqAAAW","Margaret Stein",NA,NA,"America/New_York",1,0,583,"2016-12-29 03:23:33","2017-07-02 18:29:11"
2655,1041,1001,"00580000002EYZ3AAO","John Kelly",NA,NA,"America/New_York",1,0,NA,"2016-06-08 16:27:24","2017-08-04 22:25:05"
1457,1041,1001,"00580000002EZdDAAW","Jason Chall",NA,NA,"America/Chicago",1,0,592,"2015-11-14 14:26:25","2017-07-02 18:29:11"
2703,1041,1001,"005A0000000MghzIAC","Mark Miller",NA,NA,"America/New_York",1,0,592,"2016-06-08 16:27:27","2017-07-02 18:29:11"
2839,1041,1001,"00580000002EbGwAAK","Kevin Wright",NA,NA,"America/New_York",1,0,591,"2016-06-08 16:27:36","2017-07-02 18:29:11"
3124,1041,1001,"00580000002EZbKAAW","Kelly Nunley",NA,NA,"America/New_York",1,0,583,"2016-12-29 03:23:31","2017-07-02 18:29:11"
2846,1041,1001,"005A00000074gJXIAY","Herminia de la Garza",NA,NA,"America/Chicago",1,0,592,"2016-06-08 16:27:37","2017-07-02 18:29:11"
2978,1041,1001,"00580000002Eb47AAC","Michelle Crane",NA,NA,"America/Chicago",1,0,583,"2016-12-22 22:46:21","2017-07-02 18:29:11"
3097,1041,1001,"005A0000004vxmNIAQ","Ofelia Pena Perez",NA,NA,"America/Chicago",1,0,583,"2016-12-29 03:23:29","2017-07-02 18:29:11"
2560,1041,1001,"00580000002EZrHAAW","Brandy Cornett",NA,NA,"America/New_York",1,0,591,"2016-06-08 16:27:17","2017-10-31 23:02:38"
2569,1041,1001,"00580000002EYZmAAO","Patrick Damron",NA,NA,"America/New_York",1,0,591,"2016-06-08 16:27:17","2017-07-02 18:29:11"
2874,1041,1001,"005A0000007Np1JIAS","Tiffany Jo Shepherd",NA,NA,"America/New_York",1,0,592,"2016-08-02 17:35:56","2017-07-01 16:54:11"
3382,1041,1001,"005A0000001CrjoIAC","Raquel Beaty",NA,NA,"America/New_York",1,0,583,"2016-12-30 23:04:31","2017-07-02 18:29:11"
1589,1041,1001,"00580000002EZZaAAO","Daniel Jarvis",NA,NA,"America/Chicago",1,0,583,"2015-11-14 14:26:36","2017-07-02 18:29:11"
2838,1041,1001,"005A00000074gJnIAI","Kayla Wright",NA,NA,"America/Chicago",1,0,590,"2016-06-08 16:27:36","2017-07-02 04:59:06"
3048,1041,1001,"005A00000074gJgIAI","Christopher Ogbonna",NA,NA,"America/Chicago",1,0,583,"2016-12-29 03:23:27","2017-07-02 18:29:11"
3613,1041,1001,"00580000002EZXdAAO","Warren Perez",NA,NA,"America/New_York",1,0,591,"2017-03-04 19:44:42","2017-07-02 18:29:11"
2645,1041,1001,"005A0000001AqgIIAS","Jerry Jackson",NA,NA,"America/New_York",1,0,590,"2016-06-08 16:27:23","2017-07-02 18:29:11"
2702,1041,1001,"005A0000000PHd1IAG","Jami Miller",NA,NA,"America/New_York",1,0,592,"2016-06-08 16:27:27","2017-07-02 18:29:11"
2833,1041,1001,"00580000002EZ3KAAW","Lesley Whitley",NA,NA,"America/New_York",1,0,591,"2016-06-08 16:27:36","2017-07-02 18:29:11"
3370,1041,1001,"00580000002EZoLAAW","Trevor Jackson",NA,NA,"America/New_York",1,0,583,"2016-12-30 23:04:31","2017-07-02 18:29:11"
3536,1041,1001,"00580000002EYonAAG","Mahnaz Miller",NA,NA,"America/New_York",1,0,597,"2017-02-15 23:33:56","2017-07-02 18:29:11"
1202,1041,1001,"00580000002EaYXAA0","Darby Hazen",NA,NA,"America/Chicago",1,0,583,"2015-11-14 14:26:08","2017-07-02 18:29:11"
2748,1041,1001,"005A00000074HQYIA2","Samantha Richardson",NA,NA,"America/New_York",1,0,592,"2016-06-08 16:27:30","2017-07-02 18:29:11"
2600,1041,1001,"00580000002EZRvAAO","Clay Fuller",NA,NA,"America/New_York",1,0,591,"2016-06-08 16:27:20","2017-07-02 18:29:11"
2508,1041,1001,"005A0000000NNYZIA4","Kevin Beckwith",NA,NA,"America/Chicago",1,0,592,"2016-06-08 16:27:13","2017-07-02 18:29:11"
2562,1041,1001,"005A0000000NNYjIAO","Mimi Counce",NA,NA,"America/Chicago",1,0,592,"2016-06-08 16:27:17","2017-07-02 18:29:11"
2819,1041,1001,"00580000002Eb3bAAC","Kevin Vent",NA,NA,"America/Chicago",1,0,591,"2016-06-08 16:27:35","2017-07-02 18:29:11"
2815,1041,1001,"00580000002EZ6CAAW","William Vance",NA,NA,"America/New_York",1,0,592,"2016-06-08 16:27:35","2017-07-02 18:29:11"
1414,1041,1001,"00580000002EZ8dAAG","Vanessa Hubbard",NA,NA,"America/New_York",1,0,583,"2015-11-14 14:26:22","2017-10-09 21:54:56"
3093,1041,1001,"00580000002EYptAAG","Clarissa Lugo-Pelatti",NA,NA,"America/Los_Angeles",1,0,583,"2016-12-29 03:23:29","2017-07-02 18:29:11"
3326,1041,1001,"00580000002EZrAAAW","Lisa Hernandez Espiet",NA,NA,"America/Los_Angeles",1,0,583,"2016-12-30 23:04:29","2017-07-02 18:29:11"
1303,1041,1001,"00580000002EYQ0AAO","Lina Namari",NA,NA,"America/Denver",1,0,583,"2015-11-14 14:26:14","2017-11-04 21:02:36"
3205,1041,1001,"00580000002EaNVAA0","Stephanie Tucker",NA,NA,"America/Chicago",1,0,583,"2016-12-30 23:04:22","2017-07-02 18:29:11"
3023,1041,1001,"00580000002EZsIAAW","Scott Stevenson",NA,NA,"America/Chicago",1,0,583,"2016-12-29 03:23:25","2017-07-02 18:29:11"
3179,1041,1001,"005A0000001E49PIAS","Ned Lowder",NA,NA,"America/Chicago",1,0,583,"2016-12-29 03:23:33","2017-07-02 18:29:11"
1574,1041,1001,"00580000002EZXpAAO","James Dambach",NA,NA,"America/New_York",1,0,583,"2015-11-14 14:26:35","2017-07-02 18:29:11"
3242,1041,1001,"00580000002EZoyAAG","Andrea Daly",NA,NA,"America/New_York",1,0,583,"2016-12-30 23:04:24","2017-07-02 18:29:11"
