"targetsPeriodId","startDate","endDate","createdAt","updatedAt"
4,"2015-10-01","2015-12-31","2015-10-22 12:44:39","2015-10-22 12:44:39"
5,"2016-01-01","2016-03-31","2015-10-22 12:44:43","2015-10-22 12:45:42"
6,"2016-04-01","2016-06-30","2015-10-22 12:44:47","2015-10-22 12:45:40"
7,"2016-07-01","2016-09-30","2015-10-22 12:44:49","2015-10-22 12:45:39"
8,"2016-10-01","2016-12-31","2015-10-22 12:44:50","2015-10-22 12:45:36"
9,"2017-01-01","2017-03-31","2016-09-28 22:36:33","2016-09-28 22:36:47"
10,"2017-04-01","2017-06-30","2016-09-29 21:50:14","2016-09-29 21:50:14"
11,"2017-07-01","2017-09-30","2016-09-29 21:50:14","2016-09-29 21:50:14"
12,"2017-10-01","2017-12-31","2016-09-29 21:50:14","2016-09-29 21:50:14"
14,"2018-04-01","2018-06-30","2017-10-01 08:44:54","2017-10-01 08:44:54"
