{"repId": 1003, "runUID": 3, "publishedDate": "2018-02-03 00:00:00", "startDateLocal": "2018-02-03", "nextPublishedDate": ""}
{"repId": 1006, "runUID": 1, "publishedDate": "2018-02-01 00:00:00", "startDateLocal": "2018-02-01", "nextPublishedDate": "2018-02-02 00:00:00"}
{"repId": 1004, "runUID": 3, "publishedDate": "2018-02-03 00:00:00", "startDateLocal": "2018-02-03", "nextPublishedDate": ""}
{"repId": 1009, "runUID": 3, "publishedDate": "2018-02-03 00:00:00", "startDateLocal": "2018-02-03", "nextPublishedDate": ""}
{"repId": 1002, "runUID": 1, "publishedDate": "2018-02-01 00:00:00", "startDateLocal": "2018-02-01", "nextPublishedDate": "2018-02-02 00:00:00"}
{"repId": 1007, "runUID": 1, "publishedDate": "2018-02-01 00:00:00", "startDateLocal": "2018-02-01", "nextPublishedDate": "2018-02-02 00:00:00"}
{"repId": 1005, "runUID": 2, "publishedDate": "2018-02-02 00:00:00", "startDateLocal": "2018-02-02", "nextPublishedDate": "2018-02-03 00:00:00"}
{"repId": 1009, "runUID": 2, "publishedDate": "2018-02-02 00:00:00", "startDateLocal": "2018-02-02", "nextPublishedDate": "2018-02-03 00:00:00"}
{"repId": 1002, "runUID": 3, "publishedDate": "2018-02-03 00:00:00", "startDateLocal": "2018-02-03", "nextPublishedDate": ""}
{"repId": 1004, "runUID": 1, "publishedDate": "2018-02-01 00:00:00", "startDateLocal": "2018-02-01", "nextPublishedDate": "2018-02-02 00:00:00"}
{"repId": 1008, "runUID": 2, "publishedDate": "2018-02-02 00:00:00", "startDateLocal": "2018-02-02", "nextPublishedDate": "2018-02-03 00:00:00"}
{"repId": 1010, "runUID": 2, "publishedDate": "2018-02-02 00:00:00", "startDateLocal": "2018-02-02", "nextPublishedDate": "2018-02-03 00:00:00"}
{"repId": 1006, "runUID": 2, "publishedDate": "2018-02-02 00:00:00", "startDateLocal": "2018-02-02", "nextPublishedDate": "2018-02-03 00:00:00"}
{"repId": 1006, "runUID": 3, "publishedDate": "2018-02-03 00:00:00", "startDateLocal": "2018-02-03", "nextPublishedDate": ""}
{"repId": 1008, "runUID": 1, "publishedDate": "2018-02-01 00:00:00", "startDateLocal": "2018-02-01", "nextPublishedDate": "2018-02-02 00:00:00"}
{"repId": 1003, "runUID": 1, "publishedDate": "2018-02-01 00:00:00", "startDateLocal": "2018-02-01", "nextPublishedDate": "2018-02-02 00:00:00"}
{"repId": 1009, "runUID": 1, "publishedDate": "2018-02-01 00:00:00", "startDateLocal": "2018-02-01", "nextPublishedDate": "2018-02-02 00:00:00"}
{"repId": 1008, "runUID": 3, "publishedDate": "2018-02-03 00:00:00", "startDateLocal": "2018-02-03", "nextPublishedDate": ""}
{"repId": 1001, "runUID": 1, "publishedDate": "2018-02-01 00:00:00", "startDateLocal": "2018-02-01", "nextPublishedDate": "2018-02-02 00:00:00"}
{"repId": 1007, "runUID": 3, "publishedDate": "2018-02-03 00:00:00", "startDateLocal": "2018-02-03", "nextPublishedDate": ""}
{"repId": 1003, "runUID": 2, "publishedDate": "2018-02-02 00:00:00", "startDateLocal": "2018-02-02", "nextPublishedDate": "2018-02-03 00:00:00"}
{"repId": 1001, "runUID": 2, "publishedDate": "2018-02-02 00:00:00", "startDateLocal": "2018-02-02", "nextPublishedDate": "2018-02-03 00:00:00"}
{"repId": 1007, "runUID": 2, "publishedDate": "2018-02-02 00:00:00", "startDateLocal": "2018-02-02", "nextPublishedDate": "2018-02-03 00:00:00"}
{"repId": 1001, "runUID": 3, "publishedDate": "2018-02-03 00:00:00", "startDateLocal": "2018-02-03", "nextPublishedDate": ""}
{"repId": 1005, "runUID": 1, "publishedDate": "2018-02-01 00:00:00", "startDateLocal": "2018-02-01", "nextPublishedDate": "2018-02-02 00:00:00"}
{"repId": 1010, "runUID": 3, "publishedDate": "2018-02-03 00:00:00", "startDateLocal": "2018-02-03", "nextPublishedDate": ""}
{"repId": 1004, "runUID": 2, "publishedDate": "2018-02-02 00:00:00", "startDateLocal": "2018-02-02", "nextPublishedDate": "2018-02-03 00:00:00"}
{"repId": 1005, "runUID": 3, "publishedDate": "2018-02-03 00:00:00", "startDateLocal": "2018-02-03", "nextPublishedDate": ""}
{"repId": 1010, "runUID": 1, "publishedDate": "2018-02-01 00:00:00", "startDateLocal": "2018-02-01", "nextPublishedDate": "2018-02-02 00:00:00"}
{"repId": 1002, "runUID": 2, "publishedDate": "2018-02-02 00:00:00", "startDateLocal": "2018-02-02", "nextPublishedDate": "2018-02-03 00:00:00"}
