{
	"buildUID": "unit-test-tte-build",
	"original_buildUID": "8c705569-3f7a-4be1-9ea1-90b107f5ce09",
	"buildUID_fail": "unit-test-tte-build-fail",
	"scoreDate": "2017-11-03",
	"productUID":"AKT_ALL_PRODUCTS",
	"buildUID_nightlyscoreadd":"unit-test-tte-build-copy",
	"versionUID_nightlyscoreadd":"unit-test-tte-build-copy-versionUID",
	"configUID_nightlyscoreadd":"unit-test-tte-build-copy-configUID"
}
